%YAML 1.1
%TAG !u! tag:unity3d.com,2011:
--- !u!114 &11400000
MonoBehaviour:
  m_ObjectHideFlags: 0
  m_CorrespondingSourceObject: {fileID: 0}
  m_PrefabInstance: {fileID: 0}
  m_PrefabAsset: {fileID: 0}
  m_GameObject: {fileID: 0}
  m_Enabled: 1
  m_EditorHideFlags: 0
  m_Script: {fileID: 11500000, guid: 5e62f4daee811464dbcf224bb5b367b4, type: 3}
  m_Name: Watching Paint Dry_VariablesManager
  m_EditorClassIdentifier: 
  vars: []
  varPresets: []
  updateRuntime: 1
  popUpLabelData: []
  scrollPos: {x: 0, y: 0}
