%YAML 1.1
%TAG !u! tag:unity3d.com,2011:
--- !u!114 &11400000
MonoBehaviour:
  m_ObjectHideFlags: 0
  m_CorrespondingSourceObject: {fileID: 0}
  m_PrefabInstance: {fileID: 0}
  m_PrefabAsset: {fileID: 0}
  m_GameObject: {fileID: 0}
  m_Enabled: 1
  m_EditorHideFlags: 0
  m_Script: {fileID: 11500000, guid: 3cc1f751990d444ef9e1381090933b8b, type: 3}
  m_Name: CreateNewProfile
  m_EditorClassIdentifier: 
  actions:
  - {fileID: 4470988465080226035}
  isSkippable: 1
  actionListType: 0
  unfreezePauseMenus: 1
  useParameters: 0
  canRunMultipleInstances: 0
  canSurviveSceneChanges: 0
  revertToDefaultParametersAfterRunning: 0
  parameters: []
  tagID: 0
  backupData: []
--- !u!114 &4470988465080226035
MonoBehaviour:
  m_ObjectHideFlags: 1
  m_CorrespondingSourceObject: {fileID: 0}
  m_PrefabInstance: {fileID: 0}
  m_PrefabAsset: {fileID: 0}
  m_GameObject: {fileID: 0}
  m_Enabled: 1
  m_EditorHideFlags: 0
  m_Script: {fileID: 11500000, guid: 8add97c3d2df24e22bb2344a4bd6c16b, type: 3}
  m_Name: 
  m_EditorClassIdentifier: 
  id: 0
  isDisplayed: 1
  showComment: 0
  comment: 
  willWait: 0
  endAction: 0
  skipAction: -1
  skipActionActual: {fileID: 0}
  linkedCutscene: {fileID: 0}
  linkedAsset: {fileID: 0}
  endings: []
  isEnabled: 1
  isAssetFile: 1
  isBreakPoint: 0
  nodeRect:
    serializedVersion: 2
    x: 0
    y: 0
    width: 300
    height: 60
  overrideColor: {r: 1, g: 1, b: 1, a: 1}
  showOutputSockets: 1
  parentActionListInEditor: {fileID: 0}
  manageProfileType: 0
  deleteProfileType: 0
  profileIndex: 0
  profileIndexParameterID: -1
  varID: -1
  slotVarID: 0
  useCustomLabel: 0
  menuName: 
  elementName: 
